{
  "default": true,
  "functionalRights": {
    "administration": {
      "show": {
        "condition": "roles IN ('Admin', 'SpecialistAdmin_SOURCE1, , 'SpecialistAdmin_SOURCE2)",
        "description": "Manages general visibility of and access to the administration ui."
      },
      "external-systems": {
        "show": {
          "condition": true,
          "description": "Manages general visibility of and access to the external-systems administration ui."
        }
      },
      "preferences": {
        "show": {
          "condition": "roles IN ('Admin')",
          "description": "Manages general visibility of and access to the preferences administration ui."
        }
      },
      "functional-rights": {
        "show": {
          "condition": "roles IN ('Admin')",
          "description": "Manages general visibility of and access to the functional rights administration ui."
        }
      },
      "quantities": {
        "show": {
          "condition": true,
          "description": "Manages general visibility of and access to the quantities administration ui."
        }
      },
      "units": {
        "show": {
          "condition": true,
          "description": "Manages general visibility of and access to the units administration ui."
        }
      },
      "tags": {
        "show": {
          "condition": true,
          "description": "Manages general visibility of and access to the tags administration ui."
        }
      },
      "value-list": {
        "show": {
          "condition": true,
          "description": "Manages general visibility of and access to the value list administration ui."
        }
      },
      "catalogmanager": {
        "show": {
          "condition": true,
          "description": "Manages general visibility of and access to the catalog administration ui."
        }
      },
      "templatemanager": {
        "show": {
          "condition": true,
          "description": "Manages general visibility of and access to the template administration ui."
        }
      },
      "announcements": {
        "show": {
          "condition": "roles IN ('Admin')",
          "description": "Manages general visibility of and access to the announcement administration ui."
        }
      }
    },
    "scheduler": {
      "show": {
        "condition": "roles IN ('Admin', 'DescriptiveDataAuthor')",
        "description": "Manages general visibility of and access to the scheduler ui."
      }
    },
    "mdm-modules": {
      "context-bulk-editor": {
        "show": {
          "condition": false,
          "description": "Manages general visibility of and access to the context bulk editor module."
        }
      },
      "details": {
        "show": {
          "condition": true,
          "description": "Manages general visibility of and access to the details module."
        },
        "context": {
          "show": {
            "condition": "${context} IN ('ts', 'te', 'uut')",
            "description": "Manages visibility of and access to the context view in the details module. Current context type ('te', 'ts' or 'uut') is provided as dynamic context data variable named 'context'."
          }
        },
        "general": {
          "show": {
            "condition": true,
            "description": "Manages visibility of and access to the 'general' view in the details module."
          }
        },
        "parameter-sets": {
          "show": {
            "condition": true,
            "description": "Manages visibility of and access to the 'parameter sets' view in the details module."
          }
        },
        "sensors": {
          "show": {
            "condition": true,
            "description": "Manages visibility of and access to the 'sensors' view in the details module."
          }
        }
      },
      "file-explorer": {
        "show": {
          "condition": true,
          "description": "Manages general visibility of and access to the file explorer module."
        }
      },
      "mdm-search": {
        "show": {
          "condition": true,
          "description": "Manages general visibility of and access to the mdm-search module."
        }
      },
      "quick-viewer": {
        "show": {
          "condition": true,
          "description": "Manages general visibility of and access to the quickviewer module."
        }
      },
      "recent-changes": {
        "show": {
          "condition": true,
          "description": "Manages general visibility of and access to the recent changes module."
        }
      },
      "user-prefs": {
        "show": {
          "condition": true,
          "description": "Manages general visibility of and access to the user preference module."
        }
      },
      "xy-chart-viewer": {
        "show": {
          "condition": true,
          "description": "Manages general visibility of and access to the xy-chart-viewer module."
        }
      }
    }
  }
}
