maven/mavencentral/ch.qos.logback/logback-classic/1.2.3, EPL-1.0, approved, CQ13636
maven/mavencentral/ch.qos.logback/logback-core/1.2.3, EPL-1.0, approved, CQ13635
maven/mavencentral/com.fasterxml.jackson.core/jackson-annotations/2.11.2, Apache-2.0, approved, CQ23491
maven/mavencentral/com.fasterxml.jackson.core/jackson-annotations/2.13.3, Apache-2.0, approved, clearlydefined
maven/mavencentral/com.fasterxml.jackson.core/jackson-annotations/2.5.4, Apache-2.0, approved, CQ9102
maven/mavencentral/com.fasterxml.jackson.core/jackson-core/2.11.2, Apache-2.0, approved, CQ23092
maven/mavencentral/com.fasterxml.jackson.core/jackson-core/2.13.3, Apache-2.0, approved, #2133
maven/mavencentral/com.fasterxml.jackson.core/jackson-databind/2.11.2, Apache-2.0, approved, CQ23093
maven/mavencentral/com.fasterxml.jackson.core/jackson-databind/2.13.3, Apache-2.0, approved, #2134
maven/mavencentral/com.fasterxml.jackson.core/jackson-databind/2.9.1, Apache-2.0, approved, CQ13984
maven/mavencentral/com.fasterxml.jackson.core/jackson-databind/2.9.2, Apache-2.0, approved, CQ14692
maven/mavencentral/com.fasterxml.jackson.dataformat/jackson-dataformat-yaml/2.13.3, Apache-2.0, approved, #2566
maven/mavencentral/com.fasterxml.jackson.datatype/jackson-datatype-jsr310/2.13.3, Apache-2.0, approved, clearlydefined
maven/mavencentral/com.fasterxml.jackson.jaxrs/jackson-jaxrs-base/2.11.2, Apache-2.0, approved, CQ22715
maven/mavencentral/com.fasterxml.jackson.jaxrs/jackson-jaxrs-base/2.13.3, Apache-2.0, approved, clearlydefined
maven/mavencentral/com.fasterxml.jackson.jaxrs/jackson-jaxrs-base/2.5.4, Apache-2.0, approved, clearlydefined
maven/mavencentral/com.fasterxml.jackson.jaxrs/jackson-jaxrs-json-provider/2.11.2, Apache-2.0, approved, CQ22716
maven/mavencentral/com.fasterxml.jackson.jaxrs/jackson-jaxrs-json-provider/2.13.3, Apache-2.0, approved, #2509
maven/mavencentral/com.fasterxml.jackson.jaxrs/jackson-jaxrs-json-provider/2.5.4, Apache-2.0, approved, CQ9099
maven/mavencentral/com.fasterxml.jackson.jaxrs/jackson-jaxrs-json-provider/2.9.2, Apache-2.0, approved, CQ14695
maven/mavencentral/com.fasterxml.jackson.module/jackson-module-jaxb-annotations/2.11.2, Apache-2.0, approved, CQ22717
maven/mavencentral/com.fasterxml.jackson.module/jackson-module-jaxb-annotations/2.13.3, Apache-2.0, approved, #2533
maven/mavencentral/com.github.virtuald/curvesapi/1.06, BSD-3-Clause, approved, clearlydefined
maven/mavencentral/com.google.code.findbugs/jsr305/1.3.9, Apache-2.0, approved, #2146
maven/mavencentral/com.google.code.gson/gson/2.7, Apache-2.0, approved, CQ12068
maven/mavencentral/com.google.errorprone/error_prone_annotations/2.1.3, Apache-2.0, approved, #805
maven/mavencentral/com.google.guava/guava/18.0, Apache-2.0, approved, CQ9085
maven/mavencentral/com.google.guava/guava/25.0-jre, Apache-2.0, approved, clearlydefined
maven/mavencentral/com.google.j2objc/j2objc-annotations/1.1, Apache-2.0, approved, CQ18765
maven/mavencentral/com.google.protobuf/protobuf-java-util/3.2.0, BSD-3-Clause, approved, CQ15856
maven/mavencentral/com.google.protobuf/protobuf-java/3.2.0, BSD-2-Clause, approved, CQ13421
maven/mavencentral/com.google.protobuf/protoc/3.2.0, BSD-2-Clause, approved, CQ13421
maven/mavencentral/com.kohlschutter.junixsocket/junixsocket-common/2.0.4, Apache-2.0, approved, clearlydefined
maven/mavencentral/com.kohlschutter.junixsocket/junixsocket-native-common/2.0.4, Apache-2.0, approved, clearlydefined
maven/mavencentral/com.sun.activation/jakarta.activation/1.2.2, EPL-2.0 OR BSD-3-Clause OR GPL-2.0-only with Classpath-exception-2.0, approved, ee4j.jaf
maven/mavencentral/com.sun.activation/javax.activation/1.2.0, (CDDL-1.1 OR GPL-2.0 WITH Classpath-exception-2.0) AND Apache-2.0, approved, CQ18740
maven/mavencentral/com.sun.istack/istack-commons-runtime/3.0.7, BSD-3-Clause, approved, ee4j.jaxb-impl
maven/mavencentral/com.sun.mail/javax.mail/1.5.0, CDDL-1.0 AND Apache-2.0, approved, CQ9899
maven/mavencentral/com.sun.xml.fastinfoset/FastInfoset/1.2.15, Apache-2.0, approved, CQ10313
maven/mavencentral/com.sun.xml.messaging.saaj/saaj-impl/1.5.0, BSD-3-Clause, approved, #1672
maven/mavencentral/com.sun.xml.stream.buffer/streambuffer/1.5.6, Apache-2.0, approved, #1148
maven/mavencentral/com.sun.xml.ws/policy/2.7.5, BSD-3-Clause, approved, ee4j.metro
maven/mavencentral/com.sun.xml.ws/rt/2.3.1, (CDDL-1.1 OR GPL-2.0-only WITH Classpath-exception-2.0) AND BSD-3-Clause AND SAX-PD, approved, #2941
maven/mavencentral/com.zaxxer/SparseBitSet/1.2, Apache-2.0, approved, clearlydefined
maven/mavencentral/commons-codec/commons-codec/1.10, Apache-2.0, approved, CQ9217
maven/mavencentral/commons-codec/commons-codec/1.11, Apache-2.0 AND BSD-3-Clause, approved, CQ15971
maven/mavencentral/commons-codec/commons-codec/1.15, Apache-2.0 AND BSD-3-Clause AND LicenseRef-Public-Domain, approved, CQ22641
maven/mavencentral/commons-codec/commons-codec/1.2, Apache-1.1, approved, CQ2356
maven/mavencentral/commons-httpclient/commons-httpclient/3.1, Apache-2.0, approved, CQ1765
maven/mavencentral/commons-io/commons-io/2.11.0, Apache-2.0, approved, CQ23745
maven/mavencentral/commons-io/commons-io/2.6, Apache-2.0, approved, CQ19090
maven/mavencentral/io.github.classgraph/classgraph/4.8.149, MIT, approved, CQ22530
maven/mavencentral/io.swagger.core.v3/swagger-annotations/2.2.2, Apache-2.0, approved, clearlydefined
maven/mavencentral/io.swagger.core.v3/swagger-core/2.2.2, Apache-2.0, approved, clearlydefined
maven/mavencentral/io.swagger.core.v3/swagger-integration/2.2.2, Apache-2.0, approved, clearlydefined
maven/mavencentral/io.swagger.core.v3/swagger-jaxrs2/2.2.2, Apache-2.0, approved, clearlydefined
maven/mavencentral/io.swagger.core.v3/swagger-models/2.2.2, Apache-2.0, approved, clearlydefined
maven/mavencentral/io.vavr/vavr-match/0.9.1, Apache-2.0, approved, CQ15151
maven/mavencentral/io.vavr/vavr/0.9.1, Apache-2.0, approved, clearlydefined
maven/mavencentral/jakarta.activation/jakarta.activation-api/1.2.1, EPL-2.0 OR BSD-3-Clause OR GPL-2.0-only with Classpath-exception-2.0, approved, ee4j.jaf
maven/mavencentral/jakarta.activation/jakarta.activation-api/1.2.2, EPL-2.0 OR BSD-3-Clause OR GPL-2.0-only with Classpath-exception-2.0, approved, ee4j.jaf
maven/mavencentral/jakarta.validation/jakarta.validation-api/2.0.2, Apache-2.0, approved, clearlydefined
maven/mavencentral/jakarta.xml.bind/jakarta.xml.bind-api/2.3.2, BSD-3-Clause, approved, ee4j.jaxb
maven/mavencentral/jakarta.xml.bind/jakarta.xml.bind-api/2.3.3, BSD-3-Clause, approved, ee4j.jaxb
maven/mavencentral/javax.activation/activation/1.1, CDDL-1.0, approved, CQ134
maven/mavencentral/javax.activation/javax.activation-api/1.2.0, (CDDL-1.1 OR GPL-2.0 WITH Classpath-exception-2.0) AND Apache-2.0, approved, CQ18740
maven/mavencentral/javax.annotation/javax.annotation-api/1.2, CDDL-1.1 OR GPL-2.0-only WITH Classpath-exception-2.0, approved, CQ15728
maven/mavencentral/javax.annotation/javax.annotation-api/1.3.2, CDDL-1.1 OR GPL-2.0-only WITH Classpath-exception-2.0, approved, CQ16910
maven/mavencentral/javax.jws/javax.jws-api/1.1, CDDL-1.1 OR GPL-2.0 WITH Classpath-exception-2.0, approved, CQ18741
maven/mavencentral/javax.servlet/javax.servlet-api/3.1.0, (CDDL-1.1 OR GPL-2.0-only WITH Classpath-exception-2.0) AND Apache-2.0, approved, CQ7248
maven/mavencentral/javax.validation/validation-api/1.1.0.Final, Apache-2.0, approved, CQ15114
maven/mavencentral/javax.ws.rs/javax.ws.rs-api/2.0.1, (CDDL-1.1 OR GPL-2.0 WITH Classpath-exception-2.0) AND Apache-2.0, approved, CQ9456
maven/mavencentral/javax.ws.rs/javax.ws.rs-api/2.1, (CDDL-1.1 OR GPL-2.0 WITH Classpath-exception-2.0) AND Apache-2.0, approved, CQ18121
maven/mavencentral/javax.xml.bind/jaxb-api/2.3.1, CDDL-1.1 OR GPL-2.0-only WITH Classpath-exception-2.0, approved, CQ16911
maven/mavencentral/javax.xml.bind/jaxb-api/2.4.0-b180830.0359, CDDL-1.1 or GPL-2.0-only with Classpath-exception-2.0, approved, #2150
maven/mavencentral/javax.xml.soap/javax.xml.soap-api/1.4.0, GPL-2.0-only with Classpath-exception-2.0 OR CDDL-1.0, approved, #1157
maven/mavencentral/javax.xml.ws/jaxws-api/2.3.1, CDDL-1.1 OR GPL-2.0 WITH Classpath-exception-2.0, approved, CQ18745
maven/mavencentral/javax/javaee-api/7.0, CDDL-1.0 or GPL-2.0-only WITH Classpath-exception-2.0, approved, #1767
maven/mavencentral/junit/junit/4.12, EPL-1.0, approved, CQ9232
maven/mavencentral/net.bytebuddy/byte-buddy-agent/1.7.9, Apache-2.0, approved, clearlydefined
maven/mavencentral/net.bytebuddy/byte-buddy/1.7.9, Apache-2.0, approved, clearlydefined
maven/mavencentral/net.java.dev.jna/jna-platform/5.5.0, Apache-2.0 AND (Apache-2.0 AND LGPL-2.1-or-later), approved, #1514
maven/mavencentral/net.java.dev.jna/jna/5.5.0, Apache-2.0 or LGPL-2.1, approved, #1508
maven/mavencentral/net.sf.supercsv/super-csv/2.4.0, Apache-2.0, approved, clearlydefined
maven/mavencentral/org.antlr/antlr4/4.5.3, , approved, CQ15724
maven/mavencentral/org.apache.commons/commons-collections4/4.4, Apache-2.0, approved, clearlydefined
maven/mavencentral/org.apache.commons/commons-compress/1.19, Apache-2.0 AND BSD-3-Clause, approved, #2504
maven/mavencentral/org.apache.commons/commons-compress/1.21, Apache-2.0 AND BSD-3-Clause AND bzip2-1.0.6 AND LicenseRef-Public-Domain, approved, CQ23710
maven/mavencentral/org.apache.commons/commons-lang3/3.12.0, Apache-2.0, approved, clearlydefined
maven/mavencentral/org.apache.commons/commons-lang3/3.3, Apache-2.0, approved, CQ9081
maven/mavencentral/org.apache.commons/commons-lang3/3.7, Apache-2.0, approved, clearlydefined
maven/mavencentral/org.apache.commons/commons-math3/3.6.1, Apache-2.0 AND BSD-3-Clause AND BSD-2-Clause, approved, CQ22025
maven/mavencentral/org.apache.commons/commons-text/1.10.0, Apache-2.0, approved, clearlydefined
maven/mavencentral/org.apache.httpcomponents/httpasyncclient/4.1.2, Apache-2.0, approved, CQ13506
maven/mavencentral/org.apache.httpcomponents/httpclient/4.5.13, Apache-2.0 AND LicenseRef-Public-Domain, approved, CQ23527
maven/mavencentral/org.apache.httpcomponents/httpclient/4.5.2, Apache-2.0, approved, CQ11713
maven/mavencentral/org.apache.httpcomponents/httpcore-nio/4.4.5, Apache-2.0, approved, CQ13509
maven/mavencentral/org.apache.httpcomponents/httpcore/4.4.13, Apache-2.0, approved, CQ23528
maven/mavencentral/org.apache.httpcomponents/httpcore/4.4.5, Apache-2.0, approved, CQ11716
maven/mavencentral/org.apache.logging.log4j/log4j-api/2.14.1, Apache-2.0, approved, clearlydefined
maven/mavencentral/org.apache.poi/poi-ooxml-lite/5.1.0, Apache-2.0, approved, clearlydefined
maven/mavencentral/org.apache.poi/poi-ooxml/5.1.0, Apache-2.0, approved, clearlydefined
maven/mavencentral/org.apache.poi/poi/5.1.0, Apache-2.0, approved, clearlydefined
maven/mavencentral/org.apache.santuario/xmlsec/2.1.6, , approved, CQ22139
maven/mavencentral/org.apache.xmlbeans/xmlbeans/5.0.2, Apache-2.0, approved, #8574
maven/mavencentral/org.assertj/assertj-core/3.6.2, Apache-2.0, approved, clearlydefined
maven/mavencentral/org.bouncycastle/bcpkix-jdk15on/1.68, MIT, approved, clearlydefined
maven/mavencentral/org.bouncycastle/bcprov-jdk15on/1.68, MIT, approved, CQ23714
maven/mavencentral/org.checkerframework/checker-compat-qual/2.0.0, CC-BY-2.5, approved, #804
maven/mavencentral/org.codehaus.mojo/animal-sniffer-annotations/1.14, Apache-2.0 AND MIT, approved, CQ19603
maven/mavencentral/org.codehaus.woodstox/stax2-api/3.1.4, BSD-2-Clause, approved, CQ13504
maven/mavencentral/org.codehaus.woodstox/stax2-api/4.1, Apache-2.0, approved, CQ16906
maven/mavencentral/org.codehaus.woodstox/woodstox-core-asl/4.4.1, Apache-2.0, approved, clearlydefined
maven/mavencentral/org.elasticsearch.client/elasticsearch-rest-client/6.4.1, Apache-2.0, approved, clearlydefined
maven/mavencentral/org.freemarker/freemarker/2.3.30, Apache-2.0, approved, #6764
maven/mavencentral/org.glassfish.external/management-api/3.0.0-b012, CDDL-1.0 OR (GPL-2.0-only WITH Classpath-exception-2.0), approved, #2945
maven/mavencentral/org.glassfish.gmbal/gmbal-api-only/3.1.0-b001, CDDL-1.0 AND GPL-2.0-only WITH Classpath-exception-2.0, approved, #2944
maven/mavencentral/org.glassfish.hk2.external/aopalliance-repackaged/2.5.0-b05, LicenseRef-Public-Domain, approved, CQ13274
maven/mavencentral/org.glassfish.hk2.external/javax.inject/2.5.0-b05, Apache-2.0, approved, CQ13277
maven/mavencentral/org.glassfish.hk2/hk2-api/2.5.0-b05, CDDL-1.0, approved, CQ10883
maven/mavencentral/org.glassfish.hk2/hk2-locator/2.5.0-b05, CDDL-1.1 OR GPL-2.0, approved, CQ13279
maven/mavencentral/org.glassfish.hk2/hk2-utils/2.5.0-b05, , approved, CQ10885
maven/mavencentral/org.glassfish.hk2/osgi-resource-locator/1.0.1, CDDL-1.0, approved, CQ10889
maven/mavencentral/org.glassfish.jaxb/jaxb-runtime/2.3.1, BSD-3-Clause, approved, ee4j.jaxb
maven/mavencentral/org.glassfish.jersey.bundles.repackaged/jersey-guava/2.23.2, EPL-2.0 OR GPL-2.0-only with Classpath-exception-2.0, approved, ee4j.jersey
maven/mavencentral/org.glassfish.jersey.containers/jersey-container-servlet-core/2.23.2, EPL-2.0 OR GPL-2.0-only with Classpath-exception-2.0, approved, ee4j.jersey
maven/mavencentral/org.glassfish.jersey.containers/jersey-container-servlet/2.23.2, EPL-2.0 OR GPL-2.0-only with Classpath-exception-2.0, approved, ee4j.jersey
maven/mavencentral/org.glassfish.jersey.core/jersey-client/2.23.2, EPL-2.0 OR GPL-2.0-only with Classpath-exception-2.0, approved, ee4j.jersey
maven/mavencentral/org.glassfish.jersey.core/jersey-common/2.23.2, EPL-2.0 OR GPL-2.0-only with Classpath-exception-2.0, approved, ee4j.jersey
maven/mavencentral/org.glassfish.jersey.core/jersey-server/2.23.2, EPL-2.0 OR GPL-2.0-only with Classpath-exception-2.0, approved, ee4j.jersey
maven/mavencentral/org.glassfish.jersey.ext/jersey-entity-filtering/2.23.2, EPL-2.0 OR GPL-2.0-only with Classpath-exception-2.0, approved, ee4j.jersey
maven/mavencentral/org.glassfish.jersey.media/jersey-media-jaxb/2.23.2, EPL-2.0 OR GPL-2.0-only with Classpath-exception-2.0, approved, ee4j.jersey
maven/mavencentral/org.glassfish.jersey.media/jersey-media-json-jackson/2.23.2, EPL-2.0 OR GPL-2.0-only with Classpath-exception-2.0, approved, ee4j.jersey
maven/mavencentral/org.glassfish.jersey.media/jersey-media-multipart/2.23.2, EPL-2.0 OR GPL-2.0-only with Classpath-exception-2.0, approved, ee4j.jersey
maven/mavencentral/org.glassfish.jersey.media/jersey-media-sse/2.23.2, EPL-2.0 OR GPL-2.0-only with Classpath-exception-2.0, approved, ee4j.jersey
maven/mavencentral/org.hamcrest/hamcrest-core/1.3, BSD-2-Clause, approved, CQ11429
maven/mavencentral/org.jacoco/org.jacoco.agent/0.7.6.201602180812, EPL-1.0, approved, CQ12641
maven/mavencentral/org.jacoco/org.jacoco.ant/0.7.6.201602180812, BSD-3-Clause AND EPL-1.0 AND EPL-1.0, approved, #2942
maven/mavencentral/org.jacoco/org.jacoco.core/0.7.6.201602180812, EPL-1.0, approved, CQ11820
maven/mavencentral/org.jacoco/org.jacoco.report/0.7.6.201602180812, EPL-1.0 OR Apache-2.0, approved, CQ11821
maven/mavencentral/org.javassist/javassist/3.20.0-GA, MPL-1.1 OR LGPL-2.1-or-later OR Apache-2.0, approved, CQ15727
maven/mavencentral/org.javassist/javassist/3.25.0-GA, MPL-1.1 OR LGPL-2.1-or-later OR Apache-2.0, approved, CQ19885
maven/mavencentral/org.jboss.logging/jboss-logging/3.4.1.Final, Apache-2.0, approved, CQ21255
maven/mavencentral/org.jetbrains/annotations/17.0.0, Apache-2.0, approved, clearlydefined
maven/mavencentral/org.jvnet.mimepull/mimepull/1.9.10, CDDL-1.1 OR GPL-2.0-only WITH Classpath-exception-2.0, approved, CQ21484
maven/mavencentral/org.jvnet.mimepull/mimepull/1.9.6, CDDL-1.1 OR GPL-2.0-only WITH Classpath-exception-2.0, approved, CQ21484
maven/mavencentral/org.jvnet.mimepull/mimepull/1.9.8, CDDL-1.1 OR GPL-2.0-only WITH Classpath-exception-2.0, approved, CQ21484
maven/mavencentral/org.jvnet.staxex/stax-ex/1.8, BSD-3-Clause, approved, ee4j.jaxb-impl
maven/mavencentral/org.keycloak/keycloak-adapter-spi/15.0.2, Apache-2.0, approved, clearlydefined
maven/mavencentral/org.keycloak/keycloak-common/15.0.2, Apache-2.0, approved, clearlydefined
maven/mavencentral/org.keycloak/keycloak-saml-adapter-api-public/15.0.2, Apache-2.0, approved, clearlydefined
maven/mavencentral/org.keycloak/keycloak-saml-adapter-core/15.0.2, Apache-2.0, approved, clearlydefined
maven/mavencentral/org.keycloak/keycloak-saml-core-public/15.0.2, Apache-2.0, approved, clearlydefined
maven/mavencentral/org.keycloak/keycloak-saml-core/15.0.2, Apache-2.0, approved, clearlydefined
maven/mavencentral/org.keycloak/keycloak-saml-servlet-filter-adapter/15.0.2, Apache-2.0, approved, clearlydefined
maven/mavencentral/org.keycloak/keycloak-servlet-adapter-spi/15.0.2, Apache-2.0, approved, clearlydefined
maven/mavencentral/org.mockito/mockito-core/2.13.0, , approved, CQ15418
maven/mavencentral/org.objenesis/objenesis/2.6, Apache-2.0, approved, CQ15478
maven/mavencentral/org.ow2.asm/asm-debug-all/5.0.4, BSD-2-Clause, approved, CQ9714
maven/mavencentral/org.rnorth.duct-tape/duct-tape/1.0.8, MIT, approved, clearlydefined
maven/mavencentral/org.rnorth.visible-assertions/visible-assertions/2.1.2, MIT, approved, clearlydefined
maven/mavencentral/org.rnorth/tcp-unix-socket-proxy/1.0.2, MIT, approved, clearlydefined
maven/mavencentral/org.scijava/native-lib-loader/2.0.2, BSD-2-Clause, approved, #967
maven/mavencentral/org.slf4j/jcl-over-slf4j/1.7.25, Apache-2.0, approved, CQ12843
maven/mavencentral/org.slf4j/log4j-over-slf4j/1.7.25, Apache-2.0, approved, CQ12841
maven/mavencentral/org.slf4j/slf4j-api/1.7.21, MIT, approved, CQ11943
maven/mavencentral/org.slf4j/slf4j-api/1.7.25, MIT, approved, CQ13368
maven/mavencentral/org.slf4j/slf4j-api/1.7.30, MIT, approved, CQ13368
maven/mavencentral/org.slf4j/slf4j-api/1.7.35, MIT, approved, CQ13368
maven/mavencentral/org.slf4j/slf4j-simple/1.7.25, MIT, approved, CQ7952
maven/mavencentral/org.testcontainers/elasticsearch/1.12.5, MIT, approved, clearlydefined
maven/mavencentral/org.testcontainers/testcontainers/1.12.5, MIT, approved, clearlydefined
maven/mavencentral/org.webjars/swagger-ui/3.23.0, , approved, CQ20356
maven/mavencentral/org.yaml/snakeyaml/1.30, Apache-2.0, approved, clearlydefined
